%YAML 1.1
%TAG !u! tag:unity3d.com,2011:
--- !u!114 &11400000
MonoBehaviour:
  m_ObjectHideFlags: 0
  m_PrefabParentObject: {fileID: 0}
  m_PrefabInternal: {fileID: 0}
  m_GameObject: {fileID: 0}
  m_Enabled: 1
  m_EditorHideFlags: 0
  m_Script: {fileID: 11500000, guid: c20947c0a7651144eb29c09b18e585aa, type: 3}
  m_Name: DemoReticle
  m_EditorClassIdentifier: 
  Prefab: {fileID: 11435712, guid: 5d965fb4979f7134f9c7ff9201bd9e7e, type: 2}
  Distance: 5
  Scale: 0.25
  Sprite: {fileID: 2800000, guid: 36bb11e176947e94e9269694c1cc57be, type: 3}
